[
  {
    "nomNouvel": "econo",
    "contenu": "eco",
    "type": "",
    "date": "2020-03-04 03:37:57",
    "id": "2"
  },
  {
    "nomNouvel": "eco",
    "contenu": "eco",
    "type": "eco",
    "id": 5,
    "date": "2020-03-08 19:53:25"
  }
]